use_cases • ROMOPAPI
…
cohortTableHandlerConfig <- test_databasesConfig[[1]]$cohortTableHandler

# Create CDMdbHandler
CDMdbHandler <- HadesExtras_createCDMdbHandlerFromList(cohortTableHandlerConfig, loadConnectionChecksLevel = "basicChecks")
#> Connecting using SQLite driver

Use case 1: What are the descendants of a concept in the
database?

getCodeCounts(CDMdbHandler, conceptId = 317009)
#> getCodeCounts: 317009
#> Warning: Input SQL has already been translated, so not translating again
#> This warning is displayed once every 8 hours.
#> $concept_relationships
#> # A tibble: 23 × 4
#>    parent_concept_id child_concept_id levels      concept_class_id
#>                <dbl>            <dbl> <chr>       <chr>           
#>  1            317009           320136 -1          Clinical Finding
#>  2            317009           317009 0           Clinical Finding
#>  3            317009          4191479 1-1         Clinical Finding
#>  4            317009          4145497 1-1         Clinical Finding
#>  5            317009           257581 1-1         Clinical Finding
#>  6            317009          4110051 1-1         Clinical Finding
#>  7           4191479           312950 2-2         Clinical Finding
#>  8            257581         45769438 2-2         Clinical Finding
#>  9          45769438         37116845 3-3         Clinical Finding
#> 10            317009         45562456 Mapped from ICD10 code      
#> # ℹ 13 more rows
#> 
#> $stratified_code_counts
#> # A tibble: 7,894 × 6
#>    concept_id calendar_year gender_concept_id age_decile node_record_counts
#>         <dbl>         <dbl>             <dbl>      <dbl>              <dbl>
#>  1   45548118          2020              8507          3                 61
#>  2   45548118          2016              8507          9                  1
#>  3   45548118          2004              8507          7                  9
#>  4   45548118          1998              8507          5                  9
#>  5   45548118          2018              8507          2                 33
#>  6   45548118          1999              8507          3                 17
#>  7   45548118          2010              8507          2                 13
#>  8   45548118          2016              8507          8                 25
#>  9   45548118          2011              8507          1                 14
#> 10   45548118          2020              8507          6                 84
#> # ℹ 7,884 more rows
#> # ℹ 1 more variable: node_descendant_record_counts <dbl>
#> 
#> $concepts
#> # A tibble: 23 × 9
#>    concept_id concept_name              domain_id vocabulary_id concept_class_id
#>         <dbl> <chr>                     <chr>     <chr>         <chr>           
#>  1     320136 Disorder of respiratory … Condition SNOMED        Clinical Finding
#>  2     317009 Asthma                    Condition SNOMED        Clinical Finding
#>  3    4191479 Allergic asthma           Condition SNOMED        Clinical Finding
#>  4    4145497 Intrinsic asthma          Condition SNOMED        Clinical Finding
#>  5     257581 Acute asthma              Condition SNOMED        Clinical Finding
#>  6    4110051 Mixed asthma              Condition SNOMED        Clinical Finding
#>  7     312950 IgE-mediated allergic as… Condition SNOMED        Clinical Finding
#>  8   45769438 Acute severe exacerbatio… Condition SNOMED        Clinical Finding
#>  9   37116845 Acute severe refractory … Condition SNOMED        Clinical Finding
#> 10   45562456 Asthma, unspecified       Condition ICD10         ICD10 code      
#> # ℹ 13 more rows
#> # ℹ 4 more variables: standard_concept <lgl>, concept_code <chr>,
#> #   record_counts <dbl>, descendant_record_counts <dbl>
…
